<svg width="24" height="24" viewBox="0 0 24 24" fill="none" xmlns="http://www.w3.org/2000/svg">
<path d="M20.9062 18.0937H19.0312V16.2187C19.0312 16.1156 18.9468 16.0312 18.8437 16.0312H17.7187C17.6155 16.0312 17.5312 16.1156 17.5312 16.2187V18.0937H15.6562C15.553 18.0937 15.4687 18.1781 15.4687 18.2812V19.4062C15.4687 19.5093 15.553 19.5937 15.6562 19.5937H17.5312V21.4687C17.5312 21.5718 17.6155 21.6562 17.7187 21.6562H18.8437C18.9468 21.6562 19.0312 21.5718 19.0312 21.4687V19.5937H20.9062C21.0093 19.5937 21.0937 19.5093 21.0937 19.4062V18.2812C21.0937 18.1781 21.0093 18.0937 20.9062 18.0937ZM8.75382 11.6812C8.73272 11.4773 8.72101 11.271 8.72101 11.0624C8.72101 10.6898 8.75616 10.3265 8.82179 9.9726C8.83819 9.88822 8.79366 9.8015 8.71632 9.76635C8.39757 9.62338 8.1046 9.4265 7.85147 9.17806C7.55321 8.88886 7.3185 8.54066 7.16233 8.15568C7.00616 7.7707 6.93195 7.35739 6.94444 6.94213C6.96554 6.18978 7.26788 5.47494 7.79522 4.93588C8.37413 4.34291 9.15226 4.01947 9.9796 4.02885C10.7273 4.03588 11.4491 4.32416 11.9952 4.8351C12.1804 5.00853 12.3398 5.20072 12.4733 5.40697C12.5202 5.47963 12.6116 5.5101 12.6913 5.48197C13.1038 5.339 13.5398 5.23822 13.9874 5.19135C14.1187 5.17728 14.1937 5.03666 14.1351 4.91947C13.3733 3.41244 11.8171 2.37181 10.0171 2.34369C7.42022 2.30385 5.2546 4.43431 5.2546 7.03119C5.2546 8.50306 5.93194 9.81556 6.99366 10.6757C6.24835 11.0203 5.56163 11.496 4.96632 12.0913C3.68194 13.3734 2.95538 15.0656 2.90851 16.8726C2.90788 16.8976 2.91227 16.9225 2.92141 16.9458C2.93055 16.9691 2.94426 16.9903 2.96174 17.0082C2.97921 17.0261 3.00009 17.0404 3.02315 17.0501C3.04621 17.0598 3.07098 17.0648 3.09601 17.0648H4.41085C4.51163 17.0648 4.59601 16.9851 4.59835 16.8843C4.64288 15.5249 5.19366 14.2523 6.16163 13.2867C6.85069 12.5976 7.69444 12.1195 8.61554 11.8874C8.7046 11.8617 8.76554 11.7749 8.75382 11.6812V11.6812ZM19.3124 11.0624C19.3124 8.49838 17.2523 6.41478 14.6976 6.37494C12.1007 6.3351 9.93741 8.46556 9.93741 11.0624C9.93741 12.5343 10.6171 13.8468 11.6765 14.707C10.9234 15.056 10.2379 15.5353 9.65147 16.1226C8.3671 17.4046 7.64054 19.0968 7.59366 20.9015C7.59304 20.9265 7.59742 20.9514 7.60657 20.9747C7.61571 20.998 7.62942 21.0192 7.64689 21.0371C7.66437 21.055 7.68525 21.0693 7.70831 21.079C7.73137 21.0887 7.75614 21.0937 7.78116 21.0937H9.09366C9.19444 21.0937 9.27882 21.014 9.28116 20.9132C9.32569 19.5538 9.87647 18.2812 10.8444 17.3156C11.8546 16.3054 13.1952 15.7499 14.6249 15.7499C17.2124 15.7499 19.3124 13.6523 19.3124 11.0624ZM16.746 13.1835C16.1788 13.7507 15.4265 14.0624 14.6249 14.0624C13.8233 14.0624 13.071 13.7507 12.5038 13.1835C12.2208 12.902 11.9971 12.5665 11.8462 12.1969C11.6952 11.8273 11.62 11.4312 11.6249 11.032C11.6319 10.2632 11.939 9.52025 12.4757 8.96947C13.0382 8.39291 13.7905 8.07181 14.5944 8.06244C15.389 8.05541 16.1601 8.36478 16.7273 8.92025C17.3085 9.48978 17.6273 10.2515 17.6273 11.0624C17.6249 11.864 17.3132 12.6163 16.746 13.1835V13.1835Z" fill="#1077DB"/>
</svg>
